<svg xmlns="http://www.w3.org/2000/svg" xmlns:xlink="http://www.w3.org/1999/xlink" width="20" height="20" viewBox="0 0 20 20">
    <defs>
        <path id="a" d="M15.47 16.79H1.43c-.25 0-.43.107-.43.355 0 .249.18.355.43.355h14.04c.252 0 .43-.106.43-.355 0-.248-.178-.355-.43-.355zM4.189 7.774c0 .639.25 1.242.716 1.704a.536.536 0 0 0 .323.142.44.44 0 0 0 .322-.142c.18-.178.18-.462 0-.604a1.55 1.55 0 0 1-.466-1.1c0-.426.144-.816.466-1.1a2.38 2.38 0 0 0 .716-1.704 2.38 2.38 0 0 0-.716-1.704c-.18-.178-.466-.178-.609 0-.179.177-.179.461 0 .603.287.284.466.675.466 1.1 0 .427-.144.817-.466 1.101a2.279 2.279 0 0 0-.752 1.704zM10.67 6.07c-.931.959-.931 2.485 0 3.408a.536.536 0 0 0 .323.142.44.44 0 0 0 .322-.142c.179-.178.179-.462 0-.604-.609-.603-.609-1.597 0-2.165a2.38 2.38 0 0 0 .716-1.704 2.38 2.38 0 0 0-.716-1.704c-.18-.177-.466-.177-.609 0-.18.178-.18.462 0 .604.287.284.466.674.466 1.1-.036.39-.215.781-.502 1.065zM7.95 9.478a.536.536 0 0 0 .322.142.44.44 0 0 0 .323-.142c.179-.178.179-.462 0-.604a2.108 2.108 0 0 1 0-2.981c.573-.568.86-1.314.86-2.13 0-.817-.323-1.562-.86-2.13-.18-.177-.466-.177-.61 0-.178.178-.178.462 0 .604.395.39.61.922.61 1.49s-.215 1.1-.61 1.491c-1.217 1.207-1.217 3.088-.035 4.26zm12 .177c-.108-.177-.323-.248-.502-.142l-6.95 3.727H2.076c-.645 0-1.04.568-1.04 1.136v.107l.968 1.597h12.823l1.003-1.562v-.106c0-.568-.537-1.136-1.182-1.136h-.609l5.803-3.088c.143-.142.215-.355.107-.533zM14.61 13.95c.144 0 .358.142.394.355l-.752 1.065H2.433l-.645-1.065c.036-.213.143-.355.287-.355H14.61z"/>
    </defs>
    <g fill="none" fill-rule="evenodd">
        <mask id="b" fill="#fff">
            <use xlink:href="#a"/>
        </mask>
        <use fill="#4A4A4A" fill-rule="nonzero" xlink:href="#a"/>
        <g fill="#4A4A4A" mask="url(#b)">
            <path d="M0 0h20v20H0z"/>
        </g>
    </g>
</svg>
