<?xml version="1.0" encoding="UTF-8"?>
<svg width="48px" height="48px" viewBox="0 0 48 48" version="1.1" xmlns="http://www.w3.org/2000/svg" xmlns:xlink="http://www.w3.org/1999/xlink">
    <!-- Generator: Sketch 51.3 (57544) - http://www.bohemiancoding.com/sketch -->
    <title>Selected Meal Desktop</title>
    <desc>Created with Sketch.</desc>
    <defs>
        <circle id="path-1" cx="16" cy="16" r="16"></circle>
        <filter x="-43.8%" y="-37.5%" width="187.5%" height="187.5%" filterUnits="objectBoundingBox" id="filter-2">
            <feOffset dx="0" dy="0" in="SourceAlpha" result="shadowOffsetOuter1"></feOffset>
            <feGaussianBlur stdDeviation="4" in="shadowOffsetOuter1" result="shadowBlurOuter1"></feGaussianBlur>
            <feColorMatrix values="0 0 0 0 0   0 0 0 0 0   0 0 0 0 0  0 0 0 0.2 0" type="matrix" in="shadowBlurOuter1" result="shadowMatrixOuter1"></feColorMatrix>
            <feOffset dx="0" dy="2" in="SourceAlpha" result="shadowOffsetOuter2"></feOffset>
            <feGaussianBlur stdDeviation="1" in="shadowOffsetOuter2" result="shadowBlurOuter2"></feGaussianBlur>
            <feColorMatrix values="0 0 0 0 0   0 0 0 0 0   0 0 0 0 0  0 0 0 0.5 0" type="matrix" in="shadowBlurOuter2" result="shadowMatrixOuter2"></feColorMatrix>
            <feMerge>
                <feMergeNode in="shadowMatrixOuter1"></feMergeNode>
                <feMergeNode in="shadowMatrixOuter2"></feMergeNode>
            </feMerge>
        </filter>
    </defs>
    <g id="Select-Meals" stroke="none" stroke-width="1" fill="none" fill-rule="evenodd">
        <g id="Desktop:-Select-Meals-Filters-2-(Filters-Applied)" transform="translate(-425.000000, -334.000000)">
            <g id="Group-4-Copy-35" transform="translate(293.000000, 334.000000)">
                <g id="Group-9">
                    <g id="Selected-Meal-Desktop" transform="translate(140.000000, 8.000000)">
                        <g id="Oval-2" fill-rule="nonzero">
                            <use fill="black" fill-opacity="1" filter="url(#filter-2)" xlink:href="#path-1"></use>
                            <use fill="#00C853" xlink:href="#path-1"></use>
                        </g>
                        <g id="baseline-check-24px" transform="translate(4.000000, 4.000000)">
                            <polygon id="Shape" points="0 0 24 0 24 24 0 24"></polygon>
                            <polygon id="Shape" fill="#FFFFFF" fill-rule="nonzero" points="9 16.17 4.83 12 3.41 13.41 9 19 21 7 19.59 5.59"></polygon>
                        </g>
                    </g>
                </g>
            </g>
        </g>
    </g>
</svg>