<?xml version="1.0" encoding="UTF-8"?>
<svg width="40px" height="40px" viewBox="0 0 40 40" version="1.1" xmlns="http://www.w3.org/2000/svg" xmlns:xlink="http://www.w3.org/1999/xlink">
    <!-- Generator: sketchtool 51.3 (57544) - http://www.bohemiancoding.com/sketch -->
    <title>99B992FF-664A-421E-A0F4-496141A377BA</title>
    <desc>Created with sketchtool.</desc>
    <defs>
        <path d="M20,0 C8.97777778,0 0,8.97777778 0,20 C0,31.0222222 8.93333333,40 20,40 C31.0666667,40 40,31.0666667 40,20 C40,8.93333333 31.0222222,0 20,0 Z M19.999999,37.6444426 C10.2666662,37.6444426 2.35555553,29.7333319 2.35555553,19.999999 C2.35555553,10.2666662 10.2666662,2.35555553 19.999999,2.35555553 C29.7333319,2.35555553 37.6444426,10.2666662 37.6444426,19.999999 C37.6444426,29.7333319 29.7333319,37.6444426 19.999999,37.6444426 Z M21.0666657,20.7555553 L21.0666657,8.97777754 C21.0666657,8.39999977 20.5777769,7.91111088 19.9999991,7.91111088 C19.4222213,7.91111088 18.9333324,8.39999977 18.9333324,8.97777754 L18.9333324,21.1111108 C18.9333324,21.2444442 18.9777769,21.3777775 18.9777769,21.4666664 C19.0222213,21.6444442 19.1111102,21.8222219 19.2444435,21.9555553 L27.8222212,30.533333 C28.2222212,30.933333 28.9333323,30.933333 29.3333323,30.533333 C29.7333323,30.133333 29.7333323,29.4222219 29.3333323,29.0222219 L21.0666657,20.7555553 Z" id="path-1"></path>
    </defs>
    <g id="Dashboard" stroke="none" stroke-width="1" fill="none" fill-rule="evenodd">
        <g id="Desktop:-v9" transform="translate(-1146.000000, -699.000000)">
            <g id="Indicator-/-View-Details-/-Total-Time-/-Primary-Copy" transform="translate(1146.000000, 696.000000)">
                <g id="Total-Time:-Icon" transform="translate(0.000000, 3.000000)">
                    <mask id="mask-2" fill="white">
                        <use xlink:href="#path-1"></use>
                    </mask>
                    <use id="Combined-Shape" fill="#4A4A4A" fill-rule="nonzero" xlink:href="#path-1"></use>
                    <g id="Icon-Color" mask="url(#mask-2)" fill="#4A4A4A">
                        <rect id="Rectangle-5" x="0" y="0" width="40" height="40"></rect>
                    </g>
                </g>
            </g>
        </g>
    </g>
</svg>